{
   "Ads" : "<span class='antibold' title='Ads'>Ⓐ</span>",
   "ApplicationDebuggable" : "<span class='anti' title='ApplicationDebuggable'>&#x1f576;</span>",
   "DisabledAlgorithm": "<span class='anti' title='DisabledAlgorithm'>Ⓧ</span>",
   "KnownVuln": "<span class='anti' title='KnownVuln'>Ⓥ</span>",
   "NonFreeAdd" : "<span class='anti' title='NonFreeAdd'>Ⓐ</span>",
   "NonFreeAssets" : "<span class='anti' title='NonFreeAssets'>ⓐ</span>",
   "NonFreeDep" : "<span class='anti' title='NonFreeDep'>Ⓓ</span>",
   "NonFreeNet" : "<span class='anti' title='NonFreeNet'>Ⓝ</span>",
   "NoSourceSince": "<span class='anti' title='NoSourceSince'>Ⓢ</span>",
   "Tracking" : "<span class='antibold' title='Tracking'>Ⓣ</span>",
   "UpstreamNonFree" : "<span class='anti' title='UpstreamNonFree'>Ⓤ</span>"
}
